ISSS624 - Take-home Exercise 1: Geospatial Analytics for Social Good
…
ℹ Use `spec()` to retrieve the full column specification for this data.
ℹ Specify the column types or set `show_col_types = FALSE` to quiet this message.

The data set now contains 32,101 rows and the selected 11 columns.

Let’s take a look at some data in the wp data frame to check if the data is imported correctly.

list(wp)

[[1]]
# A tibble: 32,101 × 11
   `#lat_deg` `#lon_deg` #clea…¹ #wate…² #wate…³ #inst…⁴ #mana…⁵ #subj…⁶ water…⁷
        <dbl>      <dbl> <chr>   <chr>   <chr>     <dbl> <chr>   <chr>     <dbl>
 1       5.28       7.67 Obot A… Well    Mechan…      NA <NA>    No bec…      NA
 2       4.64       7.61 Ikot A… Well    Mechan…    1983 <NA>    No bec…      NA
 3       5.30       7.61 Obot A… Well    Mechan…      NA <NA>    No bec…      NA
 4       5.28       7.94 Odukpa… Well    Mechan…      NA <NA>    No bec…      NA
 5       4.60       7.65 Ikot A… Well    Mechan…    2007 <NA>    No bec…      NA
 6       6.03       8.75 Ikom    Well    Mechan…      NA <NA>    No bec…      NA
 7       6.03       8.75 Ikom    Well    Mechan…      NA <NA>    No bec…      NA
 8       8.15       5.51 Yagba … Well    <NA>       2013 Other   No bec…      NA
 9       4.81       6.08 Southe… Well    <NA>       2000 <NA>    Accept…      NA
10       5.34       7.77 Ini     Well    Mechan…    2013 <NA>    No bec…      NA
# … with 32,091 more rows, 2 more variables: local_population_1km <dbl>,
#   crucialness_score <dbl>, and abbreviated variable names ¹​`#clean_adm2`,
#   ²​`#water_source_category`, ³​`#water_tech_category`, ⁴​`#install_year`,
#   ⁵​`#management_clean`, ⁶​`#subjective_quality`, ⁷​water_point_population
…
